{
  "keyboard_name": "mkbd65",
  "manufacturer": "XenGi",
  "url": "https://mkbd65.xengi.de",
  "maintainer": "XenGi",
  "author": ["XenGi"],
  "debounce": 5,
  "diode_direction": "ROW2COL",
  "bootmagic": {
    "enabled": true,
    "matrix": [0, 0]
  },
  "tags": ["mobile", "65%"],
  "description": "A mobile keyboard addon for modern smartphones. Fits any smartphones within some minimal size requirements. Supports any keyboard layout you want, as long as it doesn't need more keys.",
  "short": "A mobile keyboard addon for modern smartphones."
}
